…
flights <- nycflights13::flights %>%
  mutate(date = ymd(str_glue("{year}-{month}-{day}"))) %>%
  select(date, flight) %>%
  # Counting the number of distinct flights by date
  group_by(date) %>% 
  summarise(flights = n_distinct(flight)) %>%
  # Computing the weekends by converting in weekday starting on monday to ease the cut
  mutate(weekend = wday(date, week_start = getOption("lubridate.week.start", 1)) > 5) %>%
  # Finally converting to a Tsibble
  as_tsibble(key = weekend, index = date) %>%
  arrange(date)
flights

# A tsibble: 365 x 3 [1D]
# Key:       weekend [2]
#   date       flights weekend
#   <date>       <int> <lgl>  
# 1 2013-01-01     747 FALSE  
# 2 2013-01-02     837 FALSE  
# 3 2013-01-03     820 FALSE  
# 4 2013-01-04     817 FALSE  
# 5 2013-01-05     653 TRUE   
# 6 2013-01-06     747 TRUE   
# 7 2013-01-07     841 FALSE  
# 8 2013-01-08     807 FALSE  
# 9 2013-01-09     802 FALSE  
#10 2013-01-10     833 FALSE  
# … with 355 more rows
```
…
